<svg id="place" xmlns="http://www.w3.org/2000/svg" width="18" height="18" viewBox="0 0 18 18">
  <rect id="Rectangle_2421" data-name="Rectangle 2421" width="18" height="18" fill="none"/>
  <g id="Group_15219" data-name="Group 15219" transform="translate(-435 -179)">
    <g id="locate4" transform="translate(438 180)">
      <path id="Path_5473" data-name="Path 5473" d="M444.5,196a.365.365,0,0,1-.219-.073c-.256-.192-6.281-4.762-6.281-9.527a6.5,6.5,0,0,1,13,0c0,4.743-6.024,9.334-6.281,9.527A.362.362,0,0,1,444.5,196Zm0-15.289a5.741,5.741,0,0,0-5.778,5.689c0,3.925,4.7,7.922,5.777,8.789,1.08-.87,5.778-4.883,5.778-8.789A5.74,5.74,0,0,0,444.5,180.711Z" transform="translate(-438 -180)" fill="#fff" stroke="#fff" stroke-width="0.6"/>
      <path id="Path_5474" data-name="Path 5474" d="M450.889,195.689a2.845,2.845,0,1,1,2.889-2.844A2.87,2.87,0,0,1,450.889,195.689Zm0-4.978a2.134,2.134,0,1,0,2.167,2.133A2.152,2.152,0,0,0,450.889,190.711Z" transform="translate(-444.389 -186.444)" fill="#fff" stroke="#fff" stroke-width="0.6"/>
    </g>
  </g>
</svg>
